
--- FlushLogCache: WriteOnErrorOnly
[10:17:28.956][b774ce03] INFO[DATA]: [DATE:26.06.18][OFFSET:-00][RL:1.12.0][PHP:5.5.9-1ubuntu4.25][IP:172.19.0.20][PID:12][Apache/2.4.7 (Ubuntu)][apache2handler]
[10:17:28.956][b774ce03] INFO[DATA]: [Suhosin:off][APC:on][MB:on][PDO:mysql][Streams:tcp,udp,unix,udg,ssl,sslv3,tls]
[10:17:28.956][b774ce03] REQUEST[NOTE]: [POST] http://localhost/?/Ajax/&q[]=/0/
[10:17:28.958][b774ce03] AJAX[NOTE]: Action: DoAdminLogin
[10:17:28.958][b774ce03] POST[DATA]: {"Login":"admin","Password":"*******","Action":"AdminLogin","XToken":"2526d1749c6b8a90eb2a80f812055bf5"}
--- FlushLogCache: Trigger
[10:17:30.001][b774ce03] INFO[NOTICE]: exception 'RainLoop\Exceptions\ClientException' with message 'AuthError[102]' in /var/www/site/app/rainloop/v/1.12.0/app/libraries/RainLoop/Actions.php:3840
Stack trace:
#0 [internal function]: RainLoop\Actions->DoAdminLogin()
#1 /var/www/site/app/rainloop/v/1.12.0/app/libraries/RainLoop/ServiceActions.php(172): call_user_func(Array)
#2 [internal function]: RainLoop\ServiceActions->ServiceAjax('')
#3 /var/www/site/app/rainloop/v/1.12.0/app/libraries/RainLoop/Service.php(146): call_user_func(Array, '')
#4 /var/www/site/app/rainloop/v/1.12.0/app/libraries/RainLoop/Service.php(56): RainLoop\Service->localHandle()
#5 /var/www/site/app/rainloop/v/1.12.0/app/libraries/RainLoop/Service.php(79): RainLoop\Service->__construct()
#6 /var/www/site/app/rainloop/v/1.12.0/app/handle.php(94): RainLoop\Service::Handle()
#7 /var/www/site/app/rainloop/v/1.12.0/include.php(228): include('/var/www/site/a...')
#8 /var/www/site/app/index.php(13): include('/var/www/site/a...')
#9 {main}
[10:17:30.004][b774ce03] AJAX[DATA]: {"Action":"AdminLogin","Result":false,"ErrorCode":102,"ErrorMessage":"","ErrorMessageAdditional":"","Time":1136}
[10:17:30.023][b774ce03] INFO[MEMORY]: Memory peak usage: 1.25MB
[10:17:30.025][b774ce03] INFO[TIME]: Time delta: 1.1410188674927

--- FlushLogCache: WriteOnErrorOnly
[10:18:51.914][136841e2] INFO[DATA]: [DATE:26.06.18][OFFSET:-00][RL:1.12.0][PHP:5.5.9-1ubuntu4.25][IP:172.19.0.20][PID:15][Apache/2.4.7 (Ubuntu)][apache2handler]
[10:18:51.914][136841e2] INFO[DATA]: [Suhosin:off][APC:on][MB:on][PDO:mysql][Streams:tcp,udp,unix,udg,ssl,sslv3,tls]
[10:18:51.914][136841e2] REQUEST[NOTE]: [POST] http://localhost/?/Ajax/&q[]=/0/
[10:18:51.914][136841e2] AJAX[NOTE]: Action: DoAdminDomainTest
[10:18:51.914][136841e2] POST[DATA]: {"Name":"coppermail","IncHost":"localhost","IncPort":"143","IncSecure":"0","UseSieve":"0","SieveHost":"","SievePort":"4190","SieveSecure":"0","OutHost":"localhost","OutPort":"25","OutSecure":"0","OutAuth":"1","OutUsePhpMail":"0","Action":"AdminDomainTest","XToken":"2526d1749c6b8a90eb2a80f812055bf5"}
[10:18:51.931][136841e2] IMAP[NOTE]: Start connection to "tcp://localhost:143"
[10:18:51.957][136841e2] IMAP[NOTE]: Connected (unsuccess)
--- FlushLogCache: Trigger
[10:18:51.981][136841e2] IMAP[NOTICE]: Socket: [2] stream_socket_client(): unable to connect to tcp://localhost:143 (Cannot assign requested address)
[10:18:51.985][136841e2] IMAP[NOTICE]: exception 'MailSo\Net\Exceptions\SocketCanNotConnectToHostException' with message 'Can't connect to host "tcp://localhost:143"' in /var/www/site/app/rainloop/v/1.12.0/app/libraries/MailSo/Net/NetClient.php:292
Stack trace:
#0 /var/www/site/app/rainloop/v/1.12.0/app/libraries/MailSo/Imap/ImapClient.php(153): MailSo\Net\NetClient->Connect('localhost', 143, 0, false, true)
#1 /var/www/site/app/rainloop/v/1.12.0/app/libraries/RainLoop/Actions.php(4147): MailSo\Imap\ImapClient->Connect('localhost', 143, 0, false, true)
#2 [internal function]: RainLoop\Actions->DoAdminDomainTest()
#3 /var/www/site/app/rainloop/v/1.12.0/app/libraries/RainLoop/ServiceActions.php(172): call_user_func(Array)
#4 [internal function]: RainLoop\ServiceActions->ServiceAjax('')
#5 /var/www/site/app/rainloop/v/1.12.0/app/libraries/RainLoop/Service.php(146): call_user_func(Array, '')
#6 /var/www/site/app/rainloop/v/1.12.0/app/libraries/RainLoop/Service.php(56): RainLoop\Service->localHandle()
#7 /var/www/site/app/rainloop/v/1.12.0/app/libraries/RainLoop/Service.php(79): RainLoop\Service->__construct()
#8 /var/www/site/app/rainloop/v/1.12.0/app/handle.php(94): RainLoop\Service::Handle()
#9 /var/www/site/app/rainloop/v/1.12.0/include.php(228): include('/var/www/site/a...')
#10 /var/www/site/app/index.php(13): include('/var/www/site/a...')
#11 {main}
[10:18:51.993][136841e2] SMTP[NOTE]: Start connection to "tcp://localhost:25"
[10:18:51.995][136841e2] SMTP[NOTE]: Connected (unsuccess)
[10:18:51.997][136841e2] SMTP[NOTICE]: Socket: [2] stream_socket_client(): unable to connect to tcp://localhost:25 (Cannot assign requested address)
[10:18:51.999][136841e2] SMTP[NOTICE]: exception 'MailSo\Net\Exceptions\SocketCanNotConnectToHostException' with message 'Can't connect to host "tcp://localhost:25"' in /var/www/site/app/rainloop/v/1.12.0/app/libraries/MailSo/Net/NetClient.php:292
Stack trace:
#0 /var/www/site/app/rainloop/v/1.12.0/app/libraries/MailSo/Smtp/SmtpClient.php(168): MailSo\Net\NetClient->Connect('localhost', 25, 0, false, true)
#1 /var/www/site/app/rainloop/v/1.12.0/app/libraries/RainLoop/Actions.php(4188): MailSo\Smtp\SmtpClient->Connect('localhost', 25, 'localhost', 0, false, true)
#2 [internal function]: RainLoop\Actions->DoAdminDomainTest()
#3 /var/www/site/app/rainloop/v/1.12.0/app/libraries/RainLoop/ServiceActions.php(172): call_user_func(Array)
#4 [internal function]: RainLoop\ServiceActions->ServiceAjax('')
#5 /var/www/site/app/rainloop/v/1.12.0/app/libraries/RainLoop/Service.php(146): call_user_func(Array, '')
#6 /var/www/site/app/rainloop/v/1.12.0/app/libraries/RainLoop/Service.php(56): RainLoop\Service->localHandle()
#7 /var/www/site/app/rainloop/v/1.12.0/app/libraries/RainLoop/Service.php(79): RainLoop\Service->__construct()
#8 /var/www/site/app/rainloop/v/1.12.0/app/handle.php(94): RainLoop\Service::Handle()
#9 /var/www/site/app/rainloop/v/1.12.0/include.php(228): include('/var/www/site/a...')
#10 /var/www/site/app/index.php(13): include('/var/www/site/a...')
#11 {main}
[10:18:52.001][136841e2] AJAX[DATA]: {"Action":"AdminDomainTest","Result":{"Imap":"stream_socket_client(): unable to connect to tcp:\/\/localhost:143 (Cannot assign requested address)","Smtp":"stream_socket_client(): unable to connect to tcp:\/\/localhost:25 (Cannot assign requested address)","Sieve":true},"Time":123}
[10:18:52.009][136841e2] INFO[MEMORY]: Memory peak usage: 1.25MB
[10:18:52.012][136841e2] INFO[TIME]: Time delta: 0.12230610847473
